{
    "buttons": [
      {
        "type" : "activate",
        "action" : "activate",
        "modprop" : "ActivateButton",
        "rowprop" : "active",
        "rowval" : false,
        "swal": {}
      },
      {
        "type" : "inactivate",
        "action" : "inactivate",
        "modprop" : "InactivateButton",
        "rowprop" : "active",
        "rowval" : true,
        "swal": {}
      },
      {
        "type" : "edit",
        "action" : "inneredit",
        "modprop" : "EditButton",
        "rowprop" : "",
        "rowval" : null,
        "swal": {}
      }
    ],

    "addbutton":
      {
        "type" : "add",
        "action" : "inneradd",
        "modprop" : "AddButton",
        "rowprop" : "",
        "rowval" : null,
        "swal": {}
      }
  }
