  {
    "domelems": [
      "HeaderTop",
      "Address",
      "AddButton",
      "Sizes",
      "Breadcumps",
      "EditButton",
      "ChooseButton",
      "ListActions"],
    "textKeys" : {
      "addButton" : "order.add",
      "headerTitle" : "menu.orders"
    },
    "classes": {
      "container": "content-wrapper",
      "modalBody": "content"
    }

  }
