[
  {
    "_comment" : "DtNormalCol típusú oszlop",
    "header" : {
      "filterable" : true,
      "label" : "common.id",
      "type" : "text"
    },
    "row" : {
      "field" : "id",
      "extdata" : {},
      "type" : "text"
    },
    "filter": {
      "field": [
        { "field" : "id",
          "op" : "=",
          "lop" : "OR"}
      ],
      "fieldtype" : "text",
      "op": "=",
      "lop": "AND",
      "value" : ""
    },
    "virtual":false
  },

  {
    "_comment" : "DtNormalCol típusú oszlop",
    "header" : {
        "filterable" : true,
        "label" : "common.cikkszam",
        "type" : "text"
    },
    "row" : {
        "field" : "cikkszam",
        "extdata" : {},
        "type" : "text"
    },
  "filter": {
    "field": [
      { "field" : "cikkszam",
        "op" : "like",
        "lop" : "OR"}
    ],
    "fieldtype" : "text",
    "op": "like",
    "lop": "AND",
    "value" : ""
  },
  "virtual":false
},
  {
    "_comment" : "DtNormalCol típusú oszlop",
    "header" : {
      "filterable" : true,
      "label" : "common.vonalkod",
      "type" : "text"
    },
    "row" : {
      "field" : "vonalkod",
      "extdata" : {},
      "type" : "text"
    },
    "filter": {
      "field": [
        { "field" : "vonalkod",
          "op" : "like",
          "lop" : "OR"}
      ],
      "fieldtype" : "text",
      "op": "like",
      "lop": "AND",
      "value" : ""
    },
    "virtual":false
  },
  {
    "_comment" : "DtNormalCol típusú oszlop",
    "header" : {
      "filterable" : true,
      "label" : "common.termekkategoriakod",
      "type" : "text"
    },
    "row" : {
      "field" : "termekkategoriakod",
      "extdata" : {},
      "type" : "text"
    },
    "filter": {
      "field": [
        { "field" : "termekkategoriakod",
          "op" : "like",
          "lop" : "OR"}
      ],
      "fieldtype" : "text",
      "op": "like",
      "lop": "AND",
      "value" : ""
    },
    "virtual":false
  },
  {
    "_comment" : "DtNormalCol típusú oszlop",
    "header" : {
      "filterable" : true,
      "label" : "common.termekmegnevezese",
      "type" : "text"
    },
    "row" : {
      "field" : "termekmegnevezese",
      "extdata" : {},
      "type" : "text"
    },
    "filter": {
      "field": [
        { "field" : "termekmegnevezese",
          "op" : "like",
          "lop" : "OR"}
      ],
      "fieldtype" : "text",
      "op": "like",
      "lop": "AND",
      "value" : ""
    },
    "virtual":false
  },
  {
    "_comment" : "DtNormalCol típusú oszlop",
    "header" : {
      "filterable" : true,
      "label" : "common.termekleirasa",
      "type" : "text"
    },
    "row" : {
      "field" : "termekleirasa",
      "extdata" : {},
      "type" : "text"
    },
    "filter": {
      "field": [
        { "field" : "termekleirasa",
          "op" : "like",
          "lop" : "OR"}
      ],
      "fieldtype" : "text",
      "op": "like",
      "lop": "AND",
      "value" : ""
    },
    "virtual":false
  },
  {
    "_comment" : "DtNormalCol típusú oszlop",
    "header" : {
      "filterable" : true,
      "label" : "common.type_id",
      "type" : "text"
    },
    "row" : {
      "field" : "type_id",
      "extdata" : {},
      "type" : "text"
    },
    "filter": {
      "field": [
        { "field" : "type_id",
          "op" : "like",
          "lop" : "OR"}
      ],
      "fieldtype" : "text",
      "op": "like",
      "lop": "AND",
      "value" : ""
    },
    "virtual":false
  },
  {
    "_comment" : "DtNormalCol típusú oszlop",
    "header" : {
      "filterable" : true,
      "label" : "common.parent_id",
      "type" : "text"
    },
    "row" : {
      "field" : "parent_id",
      "extdata" : {},
      "type" : "text"
    },
    "filter": {
      "field": [
        { "field" : "parent_id",
          "op" : "=",
          "lop" : "OR"}
      ],
      "fieldtype" : "text",
      "op": "=",
      "lop": "AND",
      "value" : ""
    },
    "virtual":false
  },
  {
    "_comment" : "DtNormalCol típusú oszlop",
    "header" : {
      "filterable" : true,
      "label" : "common.price",
      "type" : "text"
    },
    "row" : {
      "field" : "price",
      "extdata" : {},
      "type" : "text"
    },
    "filter": {
      "field": [
        { "field" : "price",
          "op" : "like",
          "lop" : "OR"}
      ],
      "fieldtype" : "text",
      "op": "like",
      "lop": "AND",
      "value" : ""
    },
    "virtual":false
  },
  {
    "_comment" : "DtNormalCol típusú oszlop",
    "header" : {
      "filterable" : true,
      "label" : "common.total_qty",
      "type" : "text"
    },
    "row" : {
      "field" : "total_qty",
      "extdata" : {},
      "type" : "text"
    },
    "filter": {
      "field": [
        { "field" : "total_qty",
          "op" : "like",
          "lop" : "OR"}
      ],
      "fieldtype" : "text",
      "op": "like",
      "lop": "AND",
      "value" : ""
    },
    "virtual":false
  },
  {
    "_comment" : "DtNormalCol típusú oszlop",
    "header" : {
      "filterable" : true,
      "label" : "common.active",
      "type" : "text"
    },
    "row" : {
      "field" : "active",
      "extdata" : {},
      "type" : "text"
    },
    "filter": {
      "field": [
        { "field" : "active",
          "op" : "like",
          "lop" : "OR"}
      ],
      "fieldtype" : "text",
      "op": "like",
      "lop": "AND",
      "value" : ""
    },
    "virtual":false
  },
  {
    "_comment" : "DtNormalCol típusú oszlop",
    "header" : {
      "filterable" : true,
      "label" : "common.enabled",
      "type" : "checkbox"
    },
    "row" : {
      "field" : "enabled",
      "extdata" : {},
      "type" : "checkbox"
    },
    "filter": {
      "field": [
        { "field" : "enabled",
          "op" : "like",
          "lop" : "OR"}
      ],
      "fieldtype" : "checkbox",
      "op": "like",
      "lop": "AND",
      "value" : ""
    },
    "virtual":false
  },
  {
    "_comment" : "DtNormalCol típusú oszlop",
    "header" : {
      "filterable" : true,
      "label" : "common.synced",
      "type" : "checkbox"
    },
    "row" : {
      "field" : "synced",
      "extdata" : {},
      "type" : "checkbox"
    },
    "filter": {
      "field": [
        { "field" : "synced",
          "op" : "like",
          "lop" : "OR"}
      ],
      "fieldtype" : "checkbox",
      "op": "like",
      "lop": "AND",
      "value" : ""
    },
    "virtual":false
  },
  {
    "_comment" : "DtNormalCol típusú oszlop",
    "header" : {
      "filterable" : true,
      "label" : "common.syncedorder",
      "type" : "text"
    },
    "row" : {
      "field" : "syncedorder",
      "extdata" : {},
      "type" : "text"
    },
    "filter": {
      "field": [
        { "field" : "syncedorder",
          "op" : "=",
          "lop" : "OR"}
      ],
      "fieldtype" : "text",
      "op": "=",
      "lop": "AND",
      "value" : ""
    },
    "virtual":false
  }
]
